{
  "total" : 2,
  "items" : [ {
    "uid" : "4b6982287b5fda6a85660aff64db2846",
    "name" : "Check economic calendar",
    "statistic" : {
      "failed" : 0,
      "broken" : 0,
      "skipped" : 0,
      "passed" : 1,
      "unknown" : 0,
      "total" : 1
    }
  }, {
    "uid" : "410a3f7e5c74675dc16b4e3bcd37a737",
    "name" : "Check short link",
    "statistic" : {
      "failed" : 0,
      "broken" : 0,
      "skipped" : 0,
      "passed" : 1,
      "unknown" : 0,
      "total" : 1
    }
  } ]
}