{
  "reportName" : "Allure Report",
  "testRuns" : [ ],
  "statistic" : {
    "failed" : 0,
    "broken" : 0,
    "skipped" : 0,
    "passed" : 2,
    "unknown" : 0,
    "total" : 2
  },
  "time" : {
    "start" : 1567628095642,
    "stop" : 1567628160205,
    "duration" : 64563,
    "minDuration" : 6357,
    "maxDuration" : 45413,
    "sumDuration" : 51770
  }
}