"Status","Start Time","Stop Time","Duration in ms","Parent Suite","Suite","Sub Suite","Test Class","Test Method","Name","Description"
"passed","Wed Sep 04 23:15:53 MSK 2019","Wed Sep 04 23:16:00 MSK 2019","6357","","Check short link","","Check short link","","Check short link",""
"passed","Wed Sep 04 23:14:55 MSK 2019","Wed Sep 04 23:15:41 MSK 2019","45413","","Check economic calendar","","Check economic calendar","","Check economic calendar",""
